%YAML 1.1
%TAG !u! tag:unity3d.com,2011:
--- !u!74 &7400000
AnimationClip:
  m_ObjectHideFlags: 0
  m_CorrespondingSourceObject: {fileID: 0}
  m_PrefabInstance: {fileID: 0}
  m_PrefabAsset: {fileID: 0}
  m_Name: Layer12
  serializedVersion: 6
  m_Legacy: 0
  m_Compressed: 0
  m_UseHighQualityCurve: 1
  m_RotationCurves: []
  m_CompressedRotationCurves: []
  m_EulerCurves: []
  m_PositionCurves: []
  m_ScaleCurves: []
  m_FloatCurves:
  - curve:
      serializedVersion: 2
      m_Curve:
      - serializedVersion: 3
        time: 0
        value: 1
        inSlope: Infinity
        outSlope: Infinity
        tangentMode: 103
        weightedMode: 0
        inWeight: 0
        outWeight: 0
      m_PreInfinity: 2
      m_PostInfinity: 2
      m_RotationOrder: 4
    attribute: m_Enabled
    path: MaskIcon/IconAnim
    classID: 212
    script: {fileID: 0}
  - curve:
      serializedVersion: 2
      m_Curve:
      - serializedVersion: 3
        time: 0
        value: 6.4
        inSlope: 0
        outSlope: 0
        tangentMode: 136
        weightedMode: 0
        inWeight: 0
        outWeight: 0
      m_PreInfinity: 2
      m_PostInfinity: 2
      m_RotationOrder: 4
    attribute: m_Size.x
    path: MaskIcon/IconAnim
    classID: 212
    script: {fileID: 0}
  - curve:
      serializedVersion: 2
      m_Curve:
      - serializedVersion: 3
        time: 0
        value: 4.66
        inSlope: 0
        outSlope: 0
        tangentMode: 136
        weightedMode: 0
        inWeight: 0
        outWeight: 0
      m_PreInfinity: 2
      m_PostInfinity: 2
      m_RotationOrder: 4
    attribute: m_Size.y
    path: MaskIcon/IconAnim
    classID: 212
    script: {fileID: 0}
  - curve:
      serializedVersion: 2
      m_Curve:
      - serializedVersion: 3
        time: 0
        value: 0
        inSlope: Infinity
        outSlope: Infinity
        tangentMode: 103
        weightedMode: 0
        inWeight: 0
        outWeight: 0
      m_PreInfinity: 2
      m_PostInfinity: 2
      m_RotationOrder: 4
    attribute: m_Enabled
    path: MaskIcon/Icon
    classID: 212
    script: {fileID: 0}
  m_PPtrCurves:
  - curve:
    - time: 0
      value: {fileID: 21300000, guid: 4b42c57122654fe40a56849c301b261e, type: 3}
    - time: 0.016666668
      value: {fileID: 21300000, guid: 88943d31d2260a2439d0d2060e61d0ea, type: 3}
    - time: 0.033333335
      value: {fileID: 21300000, guid: 8762626c5e2112f49ab20ae0df23b081, type: 3}
    - time: 0.05
      value: {fileID: 21300000, guid: 63a127587728da543a6adf53fb457d37, type: 3}
    - time: 0.06666667
      value: {fileID: 21300000, guid: efc7561491950da42ae72b4210a358b8, type: 3}
    - time: 0.083333336
      value: {fileID: 21300000, guid: b98ff62785f90df48a9c2e5e705d0182, type: 3}
    - time: 0.1
      value: {fileID: 21300000, guid: 79b7166bf76e3f84b85bf8401508d0a9, type: 3}
    - time: 0.11666667
      value: {fileID: 21300000, guid: ef40aa85db8fbae498bb28aeb432ef5d, type: 3}
    - time: 0.13333334
      value: {fileID: 21300000, guid: da1ebccefd5cc264dad1fa910fca9278, type: 3}
    - time: 0.15
      value: {fileID: 21300000, guid: a2bd23925f9cf084d87237d26fb185e7, type: 3}
    - time: 0.16666667
      value: {fileID: 21300000, guid: d9a890749239c0c4f97d3859fe00ee17, type: 3}
    - time: 0.18333334
      value: {fileID: 21300000, guid: 646b2e924148dbc4c9c1192c28ddbf94, type: 3}
    - time: 0.2
      value: {fileID: 21300000, guid: c509513363639d24e83cf46d87c11712, type: 3}
    - time: 0.21666667
      value: {fileID: 21300000, guid: 3b59b2b6b18333a43ae5d295540a5c50, type: 3}
    - time: 0.23333333
      value: {fileID: 21300000, guid: 458053bbc4c659c4e84e18fcce50aeee, type: 3}
    - time: 0.25
      value: {fileID: 21300000, guid: 1d807214ac90f0e4a9b731ae780924c2, type: 3}
    - time: 0.26666668
      value: {fileID: 21300000, guid: dc41297c0c1541c47aa3c6a0cece46f9, type: 3}
    - time: 0.28333333
      value: {fileID: 21300000, guid: 41a21cf2088905e43a9dca71dc299831, type: 3}
    - time: 0.3
      value: {fileID: 21300000, guid: 7c4c3b7f41eca054b8acb06ada00d1c0, type: 3}
    - time: 0.31666666
      value: {fileID: 21300000, guid: 8745d65cd0613e04b84f83b6cc7b62e2, type: 3}
    - time: 0.33333334
      value: {fileID: 21300000, guid: 7db0a5274eb3d09408e6dec27b7dba11, type: 3}
    - time: 0.35
      value: {fileID: 21300000, guid: 5e2bf6f7db01f8e4aa5e66d191362e58, type: 3}
    - time: 0.36666667
      value: {fileID: 21300000, guid: 55313f4ba73928e43ac8ac5c9d7f3d57, type: 3}
    - time: 0.38333333
      value: {fileID: 21300000, guid: 4403c820af0936845bea0b1b70c56c66, type: 3}
    - time: 0.4
      value: {fileID: 21300000, guid: c39b8d8895b119a4984fd108c80e4d1f, type: 3}
    attribute: m_Sprite
    path: MaskIcon/IconAnim
    classID: 212
    script: {fileID: 0}
  m_SampleRate: 60
  m_WrapMode: 0
  m_Bounds:
    m_Center: {x: 0, y: 0, z: 0}
    m_Extent: {x: 0, y: 0, z: 0}
  m_ClipBindingConstant:
    genericBindings:
    - serializedVersion: 2
      path: 1150680780
      attribute: 3305885265
      script: {fileID: 0}
      typeID: 212
      customType: 0
      isPPtrCurve: 0
    - serializedVersion: 2
      path: 3435396427
      attribute: 3305885265
      script: {fileID: 0}
      typeID: 212
      customType: 0
      isPPtrCurve: 0
    - serializedVersion: 2
      path: 1150680780
      attribute: 0
      script: {fileID: 0}
      typeID: 212
      customType: 23
      isPPtrCurve: 1
    - serializedVersion: 2
      path: 1150680780
      attribute: 4197328169
      script: {fileID: 0}
      typeID: 212
      customType: 0
      isPPtrCurve: 0
    - serializedVersion: 2
      path: 1150680780
      attribute: 2368279999
      script: {fileID: 0}
      typeID: 212
      customType: 0
      isPPtrCurve: 0
    pptrCurveMapping:
    - {fileID: 21300000, guid: 4b42c57122654fe40a56849c301b261e, type: 3}
    - {fileID: 21300000, guid: 88943d31d2260a2439d0d2060e61d0ea, type: 3}
    - {fileID: 21300000, guid: 8762626c5e2112f49ab20ae0df23b081, type: 3}
    - {fileID: 21300000, guid: 63a127587728da543a6adf53fb457d37, type: 3}
    - {fileID: 21300000, guid: efc7561491950da42ae72b4210a358b8, type: 3}
    - {fileID: 21300000, guid: b98ff62785f90df48a9c2e5e705d0182, type: 3}
    - {fileID: 21300000, guid: 79b7166bf76e3f84b85bf8401508d0a9, type: 3}
    - {fileID: 21300000, guid: ef40aa85db8fbae498bb28aeb432ef5d, type: 3}
    - {fileID: 21300000, guid: da1ebccefd5cc264dad1fa910fca9278, type: 3}
    - {fileID: 21300000, guid: a2bd23925f9cf084d87237d26fb185e7, type: 3}
    - {fileID: 21300000, guid: d9a890749239c0c4f97d3859fe00ee17, type: 3}
    - {fileID: 21300000, guid: 646b2e924148dbc4c9c1192c28ddbf94, type: 3}
    - {fileID: 21300000, guid: c509513363639d24e83cf46d87c11712, type: 3}
    - {fileID: 21300000, guid: 3b59b2b6b18333a43ae5d295540a5c50, type: 3}
    - {fileID: 21300000, guid: 458053bbc4c659c4e84e18fcce50aeee, type: 3}
    - {fileID: 21300000, guid: 1d807214ac90f0e4a9b731ae780924c2, type: 3}
    - {fileID: 21300000, guid: dc41297c0c1541c47aa3c6a0cece46f9, type: 3}
    - {fileID: 21300000, guid: 41a21cf2088905e43a9dca71dc299831, type: 3}
    - {fileID: 21300000, guid: 7c4c3b7f41eca054b8acb06ada00d1c0, type: 3}
    - {fileID: 21300000, guid: 8745d65cd0613e04b84f83b6cc7b62e2, type: 3}
    - {fileID: 21300000, guid: 7db0a5274eb3d09408e6dec27b7dba11, type: 3}
    - {fileID: 21300000, guid: 5e2bf6f7db01f8e4aa5e66d191362e58, type: 3}
    - {fileID: 21300000, guid: 55313f4ba73928e43ac8ac5c9d7f3d57, type: 3}
    - {fileID: 21300000, guid: 4403c820af0936845bea0b1b70c56c66, type: 3}
    - {fileID: 21300000, guid: c39b8d8895b119a4984fd108c80e4d1f, type: 3}
  m_AnimationClipSettings:
    serializedVersion: 2
    m_AdditiveReferencePoseClip: {fileID: 0}
    m_AdditiveReferencePoseTime: 0
    m_StartTime: 0
    m_StopTime: 0.4166667
    m_OrientationOffsetY: 0
    m_Level: 0
    m_CycleOffset: 0
    m_HasAdditiveReferencePose: 0
    m_LoopTime: 1
    m_LoopBlend: 0
    m_LoopBlendOrientation: 0
    m_LoopBlendPositionY: 0
    m_LoopBlendPositionXZ: 0
    m_KeepOriginalOrientation: 0
    m_KeepOriginalPositionY: 1
    m_KeepOriginalPositionXZ: 0
    m_HeightFromFeet: 0
    m_Mirror: 0
  m_EditorCurves:
  - curve:
      serializedVersion: 2
      m_Curve:
      - serializedVersion: 3
        time: 0
        value: 1
        inSlope: Infinity
        outSlope: Infinity
        tangentMode: 103
        weightedMode: 0
        inWeight: 0
        outWeight: 0
      m_PreInfinity: 2
      m_PostInfinity: 2
      m_RotationOrder: 4
    attribute: m_Enabled
    path: MaskIcon/IconAnim
    classID: 212
    script: {fileID: 0}
  - curve:
      serializedVersion: 2
      m_Curve:
      - serializedVersion: 3
        time: 0
        value: 6.4
        inSlope: 0
        outSlope: 0
        tangentMode: 136
        weightedMode: 0
        inWeight: 0
        outWeight: 0
      m_PreInfinity: 2
      m_PostInfinity: 2
      m_RotationOrder: 4
    attribute: m_Size.x
    path: MaskIcon/IconAnim
    classID: 212
    script: {fileID: 0}
  - curve:
      serializedVersion: 2
      m_Curve:
      - serializedVersion: 3
        time: 0
        value: 4.66
        inSlope: 0
        outSlope: 0
        tangentMode: 136
        weightedMode: 0
        inWeight: 0
        outWeight: 0
      m_PreInfinity: 2
      m_PostInfinity: 2
      m_RotationOrder: 4
    attribute: m_Size.y
    path: MaskIcon/IconAnim
    classID: 212
    script: {fileID: 0}
  - curve:
      serializedVersion: 2
      m_Curve:
      - serializedVersion: 3
        time: 0
        value: 0
        inSlope: Infinity
        outSlope: Infinity
        tangentMode: 103
        weightedMode: 0
        inWeight: 0
        outWeight: 0
      m_PreInfinity: 2
      m_PostInfinity: 2
      m_RotationOrder: 4
    attribute: m_Enabled
    path: MaskIcon/Icon
    classID: 212
    script: {fileID: 0}
  m_EulerEditorCurves: []
  m_HasGenericRootTransform: 0
  m_HasMotionFloatCurves: 0
  m_Events: []
