%YAML 1.1
%TAG !u! tag:unity3d.com,2011:
--- !u!687078895 &4343727234628468602
SpriteAtlas:
  m_ObjectHideFlags: 0
  m_CorrespondingSourceObject: {fileID: 0}
  m_PrefabInstance: {fileID: 0}
  m_PrefabAsset: {fileID: 0}
  m_Name: Icons
  m_EditorData:
    serializedVersion: 2
    textureSettings:
      serializedVersion: 2
      anisoLevel: 1
      compressionQuality: 50
      maxTextureSize: 2048
      textureCompression: 0
      filterMode: 1
      generateMipMaps: 0
      readable: 1
      crunchedCompression: 0
      sRGB: 1
    platformSettings:
    - serializedVersion: 3
      m_BuildTarget: DefaultTexturePlatform
      m_MaxTextureSize: 2048
      m_ResizeAlgorithm: 0
      m_TextureFormat: -1
      m_TextureCompression: 0
      m_CompressionQuality: 50
      m_CrunchedCompression: 0
      m_AllowsAlphaSplitting: 0
      m_Overridden: 0
      m_AndroidETC2FallbackOverride: 0
      m_ForceMaximumCompressionQuality_BC6H_BC7: 0
    packingSettings:
      serializedVersion: 2
      padding: 4
      blockOffset: 1
      allowAlphaSplitting: 0
      enableRotation: 0
      enableTightPacking: 1
    variantMultiplier: 1
    packables:
    - {fileID: 2800000, guid: bef56eaaede8aaf4996b6e2939eb4762, type: 3}
    - {fileID: 2800000, guid: 88f08b1aae164334eb62540ec9a021e6, type: 3}
    - {fileID: 2800000, guid: c24453afcf2e86843980ba9e1fc8dd44, type: 3}
    - {fileID: 2800000, guid: c02bbe1d0a523e44ca35f6ce87d8d425, type: 3}
    - {fileID: 2800000, guid: a69fe341e13cef747bb1176dc30ac78e, type: 3}
    - {fileID: 2800000, guid: cbe9aad7fd88b754aa0b3d5759088a85, type: 3}
    - {fileID: 2800000, guid: ed22fd1d1cfe2244786ddc3f320e91fb, type: 3}
    - {fileID: 2800000, guid: 78eb472eaa9b1734a92445016fc72220, type: 3}
    - {fileID: 2800000, guid: 645b8e5eaafcbf247a1e97b14eb78fff, type: 3}
    - {fileID: 2800000, guid: 2a2d61a89ec07134cac7d0600bb9cec5, type: 3}
    - {fileID: 2800000, guid: 000ea7fe3c1669f44918ef59f63065c0, type: 3}
    - {fileID: 2800000, guid: f80950912885ff54686bfbaf2c5ec200, type: 3}
    - {fileID: 2800000, guid: 7a97832fd544118498125e18c08c46a0, type: 3}
    totalSpriteSurfaceArea: 713241
    bindAsDefault: 1
  m_MasterAtlas: {fileID: 0}
  m_PackedSprites:
  - {fileID: 21300000, guid: a69fe341e13cef747bb1176dc30ac78e, type: 3}
  - {fileID: 21300000, guid: f80950912885ff54686bfbaf2c5ec200, type: 3}
  - {fileID: 21300000, guid: cbe9aad7fd88b754aa0b3d5759088a85, type: 3}
  - {fileID: 21300000, guid: 2a2d61a89ec07134cac7d0600bb9cec5, type: 3}
  - {fileID: 21300000, guid: 88f08b1aae164334eb62540ec9a021e6, type: 3}
  - {fileID: 21300000, guid: bef56eaaede8aaf4996b6e2939eb4762, type: 3}
  - {fileID: 21300000, guid: ed22fd1d1cfe2244786ddc3f320e91fb, type: 3}
  - {fileID: 21300000, guid: c02bbe1d0a523e44ca35f6ce87d8d425, type: 3}
  - {fileID: 21300000, guid: 78eb472eaa9b1734a92445016fc72220, type: 3}
  - {fileID: 21300000, guid: 645b8e5eaafcbf247a1e97b14eb78fff, type: 3}
  - {fileID: 21300000, guid: 000ea7fe3c1669f44918ef59f63065c0, type: 3}
  - {fileID: 21300000, guid: 7a97832fd544118498125e18c08c46a0, type: 3}
  - {fileID: 21300000, guid: c24453afcf2e86843980ba9e1fc8dd44, type: 3}
  m_PackedSpriteNamesToIndex:
  - Layer5
  - Layer12
  - Layer6
  - Layer10
  - Layer2
  - Layer1
  - Layer7
  - Layer4
  - Layer8
  - Layer9
  - Layer11
  - Layer13
  - Layer3
  m_Tag: Icons
  m_IsVariant: 0
